{
    "photos": {
        "page": 1,
        "pages": 17,
        "perpage": 30,
        "total": 500,
        "photo": [
            {
                "id": "28831423151",
                "owner": "21846004@N03",
                "secret": "369c6b6eb8",
                "server": "7560",
                "farm": 8,
                "title": "Borage",
                "ispublic": 1,
                "isfriend": 0,
                "isfamily": 0
            },
            {
                "id": "28834255351",
                "owner": "57866871@N03",
                "secret": "a18b6b8e80",
                "server": "8860",
                "farm": 9,
                "title": "Painterly pierside",
                "ispublic": 1,
                "isfriend": 0,
                "isfamily": 0
            },
            {
                "id": "28803975902",
                "owner": "78422747@N04",
                "secret": "da9cc5daa7",
                "server": "8741",
                "farm": 9,
                "title": "Summer Night's Dream",
                "ispublic": 1,
                "isfriend": 0,
                "isfamily": 0
            },
            {
                "id": "28832228681",
                "owner": "132414696@N08",
                "secret": "4f9343b274",
                "server": "8290",
                "farm": 9,
                "title": "At the end of the way",
                "ispublic": 1,
                "isfriend": 0,
                "isfamily": 0
            },
            {
                "id": "28293416533",
                "owner": "92361032@N05",
                "secret": "abc6b79c5d",
                "server": "8064",
                "farm": 9,
                "title": "Spider for lunch /  araignée au menu",
                "ispublic": 1,
                "isfriend": 0,
                "isfamily": 0
            },
            {
                "id": "28876709866",
                "owner": "126827374@N04",
                "secret": "ec089f9f1e",
                "server": "8825",
                "farm": 9,
                "title": "Great Spotted Woodpecker - juvenile      (Dendrocopos major)",
                "ispublic": 1,
                "isfriend": 0,
                "isfamily": 0
            },
            {
                "id": "28284103054",
                "owner": "48945861@N06",
                "secret": "8babc345a7",
                "server": "8653",
                "farm": 9,
                "title": "Snowy Flies",
                "ispublic": 1,
                "isfriend": 0,
                "isfamily": 0
            },
            {
                "id": "28907848115",
                "owner": "134276106@N02",
                "secret": "e2455ef068",
                "server": "8414",
                "farm": 9,
                "title": "hardly feel the sun",
                "ispublic": 1,
                "isfriend": 0,
                "isfamily": 0
            },
            {
                "id": "28293685314",
                "owner": "44351311@N04",
                "secret": "d466d29310",
                "server": "8893",
                "farm": 9,
                "title": "a page turner",
                "ispublic": 1,
                "isfriend": 0,
                "isfamily": 0
            },
            {
                "id": "28620258460",
                "owner": "79233265@N07",
                "secret": "1e193fd899",
                "server": "8062",
                "farm": 9,
                "title": "Denkmalgeschützte Marktkirche, Essen-Kettwig",
                "ispublic": 1,
                "isfriend": 0,
                "isfamily": 0
            },
            {
                "id": "28913118525",
                "owner": "62261886@N03",
                "secret": "5443dc443e",
                "server": "8301",
                "farm": 9,
                "title": "Euproctis similis - Yellow-tail Moth larva",
                "ispublic": 1,
                "isfriend": 0,
                "isfamily": 0
            },
            {
                "id": "28801823912",
                "owner": "7247833@N04",
                "secret": "98c7945401",
                "server": "8692",
                "farm": 9,
                "title": "The End",
                "ispublic": 1,
                "isfriend": 0,
                "isfamily": 0
            },
            {
                "id": "28288757564",
                "owner": "13048208@N02",
                "secret": "b1b89bb0c2",
                "server": "8169",
                "farm": 9,
                "title": "Halcyon",
                "ispublic": 1,
                "isfriend": 0,
                "isfamily": 0
            },
            {
                "id": "28287969414",
                "owner": "72999943@N05",
                "secret": "f07dd634df",
                "server": "8578",
                "farm": 9,
                "title": "Barn owl",
                "ispublic": 1,
                "isfriend": 0,
                "isfamily": 0
            },
            {
                "id": "28802204182",
                "owner": "27450769@N06",
                "secret": "1021272a07",
                "server": "8669",
                "farm": 9,
                "title": "Too long in the safe harbour..?",
                "ispublic": 1,
                "isfriend": 0,
                "isfamily": 0
            },
            {
                "id": "28298802883",
                "owner": "68924509@N07",
                "secret": "0ae2a7a90a",
                "server": "8690",
                "farm": 9,
                "title": "Brenthis daphne",
                "ispublic": 1,
                "isfriend": 0,
                "isfamily": 0
            },
            {
                "id": "28913069885",
                "owner": "93686885@N02",
                "secret": "a2a8d8833a",
                "server": "8574",
                "farm": 9,
                "title": "The Leaning Tower of Pisa",
                "ispublic": 1,
                "isfriend": 0,
                "isfamily": 0
            },
            {
                "id": "28881351256",
                "owner": "130264321@N07",
                "secret": "9963229e1b",
                "server": "8600",
                "farm": 9,
                "title": "Streetlamps of Tokyo",
                "ispublic": 1,
                "isfriend": 0,
                "isfamily": 0
            },
            {
                "id": "28620093920",
                "owner": "77575637@N02",
                "secret": "81c25b2837",
                "server": "8385",
                "farm": 9,
                "title": "Day Dreaming",
                "ispublic": 1,
                "isfriend": 0,
                "isfamily": 0
            },
            {
                "id": "28301079983",
                "owner": "132867686@N07",
                "secret": "03d5a062c0",
                "server": "8888",
                "farm": 9,
                "title": "Stars of nature",
                "ispublic": 1,
                "isfriend": 0,
                "isfamily": 0
            },
            {
                "id": "28904898975",
                "owner": "96858542@N04",
                "secret": "efecf0e50d",
                "server": "8658",
                "farm": 9,
                "title": "Star Trail",
                "ispublic": 1,
                "isfriend": 0,
                "isfamily": 0
            },
            {
                "id": "28620205340",
                "owner": "41993130@N04",
                "secret": "8aa81d74e2",
                "server": "8564",
                "farm": 9,
                "title": "Another Moment to Think about Time and Space - Joshua Tree National Park",
                "ispublic": 1,
                "isfriend": 0,
                "isfamily": 0
            },
            {
                "id": "28291092493",
                "owner": "45855129@N03",
                "secret": "48cf507a93",
                "server": "7559",
                "farm": 8,
                "title": "la diagonale du berger (2)",
                "ispublic": 1,
                "isfriend": 0,
                "isfamily": 0
            },
            {
                "id": "28879334746",
                "owner": "138047837@N02",
                "secret": "15b11b84c0",
                "server": "7654",
                "farm": 8,
                "title": "Neighbours",
                "ispublic": 1,
                "isfriend": 0,
                "isfamily": 0
            },
            {
                "id": "28903805945",
                "owner": "43845847@N03",
                "secret": "775dd3c292",
                "server": "8880",
                "farm": 9,
                "title": "5:30AM",
                "ispublic": 1,
                "isfriend": 0,
                "isfamily": 0
            },
            {
                "id": "28826258341",
                "owner": "71731720@N08",
                "secret": "da1e4c92e5",
                "server": "8574",
                "farm": 9,
                "title": "Maligne Lake II",
                "ispublic": 1,
                "isfriend": 0,
                "isfamily": 0
            },
            {
                "id": "28840344731",
                "owner": "92438159@N07",
                "secret": "5b9f477e12",
                "server": "8828",
                "farm": 9,
                "title": "Kullaberg",
                "ispublic": 1,
                "isfriend": 0,
                "isfamily": 0
            },
            {
                "id": "28813956682",
                "owner": "36096945@N02",
                "secret": "7c5fe868f9",
                "server": "8692",
                "farm": 9,
                "title": "Black tern juvie",
                "ispublic": 1,
                "isfriend": 0,
                "isfamily": 0
            },
            {
                "id": "28622160210",
                "owner": "79267046@N06",
                "secret": "af2e7a584e",
                "server": "8370",
                "farm": 9,
                "title": "there's a degree of difficulty",
                "ispublic": 1,
                "isfriend": 0,
                "isfamily": 0
            },
            {
                "id": "28811816952",
                "owner": "69747448@N07",
                "secret": "2cb99a1eb8",
                "server": "8787",
                "farm": 9,
                "title": "Butterfly Days",
                "ispublic": 1,
                "isfriend": 0,
                "isfamily": 0
            }
        ]
    },
    "stat": "ok"
}